<?xml version="1.0" encoding="UTF-8" standalone="no"?>
<!DOCTYPE log SYSTEM "logger.dtd">
<log>
<record>
  <date>2021-01-22T15:48:48</date>
  <millis>1611290928130</millis>
  <sequence>0</sequence>
  <level>START</level>
  <class>com.kms.katalon.core.logging.XmlKeywordLogger</class>
  <method>startSuite</method>
  <thread>1</thread>
  <message>Start Test Suite : Test Suites/API Test Suite</message>
  <nestedLevel>0</nestedLevel>
  <property name="name">API Test Suite</property>
  <property name="description"></property>
  <property name="id">Test Suites/API Test Suite</property>
</record>
<record>
  <date>2021-01-22T15:48:48</date>
  <millis>1611290928141</millis>
  <sequence>1</sequence>
  <level>RUN_DATA</level>
  <class>com.kms.katalon.core.logging.XmlKeywordLogger</class>
  <method>logMessage</method>
  <thread>1</thread>
  <message>hostName = abhi1 - DESKTOP-JINJDOT</message>
  <nestedLevel>0</nestedLevel>
  <property name="hostName">abhi1 - DESKTOP-JINJDOT</property>
</record>
<record>
  <date>2021-01-22T15:48:48</date>
  <millis>1611290928149</millis>
  <sequence>2</sequence>
  <level>RUN_DATA</level>
  <class>com.kms.katalon.core.logging.XmlKeywordLogger</class>
  <method>logMessage</method>
  <thread>1</thread>
  <message>os = Windows 10 64bit</message>
  <nestedLevel>0</nestedLevel>
  <property name="os">Windows 10 64bit</property>
</record>
<record>
  <date>2021-01-22T15:48:48</date>
  <millis>1611290928149</millis>
  <sequence>3</sequence>
  <level>RUN_DATA</level>
  <class>com.kms.katalon.core.logging.XmlKeywordLogger</class>
  <method>logMessage</method>
  <thread>1</thread>
  <message>hostAddress = 192.168.1.103</message>
  <nestedLevel>0</nestedLevel>
  <property name="hostAddress">192.168.1.103</property>
</record>
<record>
  <date>2021-01-22T15:48:48</date>
  <millis>1611290928150</millis>
  <sequence>4</sequence>
  <level>RUN_DATA</level>
  <class>com.kms.katalon.core.logging.XmlKeywordLogger</class>
  <method>logMessage</method>
  <thread>1</thread>
  <message>katalonVersion = 6.3.3.11</message>
  <nestedLevel>0</nestedLevel>
  <property name="katalonVersion">6.3.3.11</property>
</record>
<record>
  <date>2021-01-22T15:48:48</date>
  <millis>1611290928446</millis>
  <sequence>5</sequence>
  <level>START</level>
  <class>com.kms.katalon.core.logging.XmlKeywordLogger</class>
  <method>startTest</method>
  <thread>1</thread>
  <message>Start Test Case : Test Cases/API_TC01</message>
  <nestedLevel>1</nestedLevel>
  <property name="name">Test Cases/API_TC01</property>
  <property name="description"></property>
  <property name="id">Test Cases/API_TC01</property>
  <property name="source">C:\\Users\\abhi1\\git\\api_automation.v1\\Test Cases\\API_TC01.tc</property>
  <property name="tag"></property>
  <property name="isOptional">false</property>
</record>
<record>
  <date>2021-01-22T15:48:48</date>
  <millis>1611290928460</millis>
  <sequence>7</sequence>
  <level>INFO</level>
  <class>com.kms.katalon.core.logging.XmlKeywordLogger</class>
  <method>logMessage</method>
  <thread>1</thread>
  <message>countryCode = IN</message>
  <nestedLevel>1</nestedLevel>
</record>
<record>
  <date>2021-01-22T15:48:48</date>
  <millis>1611290928460</millis>
  <sequence>8</sequence>
  <level>INFO</level>
  <class>com.kms.katalon.core.logging.XmlKeywordLogger</class>
  <method>logMessage</method>
  <thread>1</thread>
  <message>RespCurr = Rupees</message>
  <nestedLevel>1</nestedLevel>
</record>
<record>
  <date>2021-01-22T15:48:48</date>
  <millis>1611290928460</millis>
  <sequence>9</sequence>
  <level>INFO</level>
  <class>com.kms.katalon.core.logging.XmlKeywordLogger</class>
  <method>logMessage</method>
  <thread>1</thread>
  <message>RespCD = INR</message>
  <nestedLevel>1</nestedLevel>
</record>
<record>
  <date>2021-01-22T15:48:48</date>
  <millis>1611290928793</millis>
  <sequence>10</sequence>
  <level>START</level>
  <class>com.kms.katalon.core.logging.XmlKeywordLogger</class>
  <method>startKeyword</method>
  <thread>1</thread>
  <message>Start action : Response2 = sendRequest(findTestObject(\&amp;quot;SOAP/Currency_var\&amp;quot;, [\&amp;quot;countryCD\&amp;quot;:countryCode]))</message>
  <nestedLevel>1</nestedLevel>
  <property name="startLine">16</property>
  <property name="stepIndex">1</property>
</record>
<record>
  <date>2021-01-22T15:48:51</date>
  <millis>1611290931584</millis>
  <sequence>13</sequence>
  <level>INFO</level>
  <class>com.kms.katalon.core.logging.XmlKeywordLogger</class>
  <method>logMessage</method>
  <thread>1</thread>
  <message>HAR: C:\\Users\\abhi1\\git\\api_automation.v1\\Reports\\20210122_154846\\API Test Suite\\20210122_154846\\requests\\main\\0.har</message>
  <nestedLevel>1</nestedLevel>
  <property name="harId">585f4a52-ce07-48e9-b5db-b71907344478</property>
</record>
<record>
  <date>2021-01-22T15:48:51</date>
  <millis>1611290931652</millis>
  <sequence>14</sequence>
  <level>PASSED</level>
  <class>com.kms.katalon.core.logging.XmlKeywordLogger</class>
  <method>logMessage</method>
  <thread>1</thread>
  <message>Send request successfully</message>
  <nestedLevel>1</nestedLevel>
</record>
<record>
  <date>2021-01-22T15:48:51</date>
  <millis>1611290931652</millis>
  <sequence>15</sequence>
  <level>END</level>
  <class>com.kms.katalon.core.logging.XmlKeywordLogger</class>
  <method>endKeyword</method>
  <thread>1</thread>
  <message>End action : Response2 = sendRequest(findTestObject(\&amp;quot;SOAP/Currency_var\&amp;quot;, [\&amp;quot;countryCD\&amp;quot;:countryCode]))</message>
  <nestedLevel>1</nestedLevel>
</record>
<record>
  <date>2021-01-22T15:48:51</date>
  <millis>1611290931652</millis>
  <sequence>16</sequence>
  <level>START</level>
  <class>com.kms.katalon.core.logging.XmlKeywordLogger</class>
  <method>startKeyword</method>
  <thread>1</thread>
  <message>Start action : verifyElementText(Response2, \&amp;quot;CountryCurrencyResponse.CountryCurrencyResult.sName\&amp;quot;, RespCurr)</message>
  <nestedLevel>1</nestedLevel>
  <property name="startLine">18</property>
  <property name="stepIndex">2</property>
</record>
<record>
  <date>2021-01-22T15:48:51</date>
  <millis>1611290931751</millis>
  <sequence>18</sequence>
  <level>PASSED</level>
  <class>com.kms.katalon.core.logging.XmlKeywordLogger</class>
  <method>logMessage</method>
  <thread>1</thread>
  <message>Verify element text successfully</message>
  <nestedLevel>1</nestedLevel>
</record>
<record>
  <date>2021-01-22T15:48:51</date>
  <millis>1611290931752</millis>
  <sequence>19</sequence>
  <level>END</level>
  <class>com.kms.katalon.core.logging.XmlKeywordLogger</class>
  <method>endKeyword</method>
  <thread>1</thread>
  <message>End action : verifyElementText(Response2, \&amp;quot;CountryCurrencyResponse.CountryCurrencyResult.sName\&amp;quot;, RespCurr)</message>
  <nestedLevel>1</nestedLevel>
</record>
<record>
  <date>2021-01-22T15:48:51</date>
  <millis>1611290931752</millis>
  <sequence>20</sequence>
  <level>START</level>
  <class>com.kms.katalon.core.logging.XmlKeywordLogger</class>
  <method>startKeyword</method>
  <thread>1</thread>
  <message>Start action : verifyElementText(Response2, \&amp;quot;CountryCurrencyResponse.CountryCurrencyResult.sISOCode\&amp;quot;, RespCD)</message>
  <nestedLevel>1</nestedLevel>
  <property name="startLine">20</property>
  <property name="stepIndex">3</property>
</record>
<record>
  <date>2021-01-22T15:48:51</date>
  <millis>1611290931789</millis>
  <sequence>22</sequence>
  <level>PASSED</level>
  <class>com.kms.katalon.core.logging.XmlKeywordLogger</class>
  <method>logMessage</method>
  <thread>1</thread>
  <message>Verify element text successfully</message>
  <nestedLevel>1</nestedLevel>
</record>
<record>
  <date>2021-01-22T15:48:51</date>
  <millis>1611290931790</millis>
  <sequence>23</sequence>
  <level>END</level>
  <class>com.kms.katalon.core.logging.XmlKeywordLogger</class>
  <method>endKeyword</method>
  <thread>1</thread>
  <message>End action : verifyElementText(Response2, \&amp;quot;CountryCurrencyResponse.CountryCurrencyResult.sISOCode\&amp;quot;, RespCD)</message>
  <nestedLevel>1</nestedLevel>
</record>
<record>
  <date>2021-01-22T15:48:51</date>
  <millis>1611290931790</millis>
  <sequence>24</sequence>
  <level>START</level>
  <class>com.kms.katalon.core.logging.XmlKeywordLogger</class>
  <method>startKeyword</method>
  <thread>1</thread>
  <message>Start action : if (countryCode == \&amp;quot;US\&amp;quot;)</message>
  <nestedLevel>1</nestedLevel>
  <property name="startLine">22</property>
  <property name="stepIndex">4</property>
</record>
<record>
  <date>2021-01-22T15:48:51</date>
  <millis>1611290931791</millis>
  <sequence>25</sequence>
  <level>END</level>
  <class>com.kms.katalon.core.logging.XmlKeywordLogger</class>
  <method>endKeyword</method>
  <thread>1</thread>
  <message>End action : if (countryCode == \&amp;quot;US\&amp;quot;)</message>
  <nestedLevel>1</nestedLevel>
</record>
<record>
  <date>2021-01-22T15:48:51</date>
  <millis>1611290931792</millis>
  <sequence>26</sequence>
  <level>START</level>
  <class>com.kms.katalon.core.logging.XmlKeywordLogger</class>
  <method>startKeyword</method>
  <thread>1</thread>
  <message>Start action : else</message>
  <nestedLevel>1</nestedLevel>
  <property name="startLine">28</property>
  <property name="stepIndex">5</property>
</record>
<record>
  <date>2021-01-22T15:48:51</date>
  <millis>1611290931792</millis>
  <sequence>27</sequence>
  <level>START</level>
  <class>com.kms.katalon.core.logging.XmlKeywordLogger</class>
  <method>startKeyword</method>
  <thread>1</thread>
  <message>Start action : println(\&amp;quot;ABhishek connected with Jenkins and first push5\&amp;quot;)</message>
  <nestedLevel>2</nestedLevel>
  <property name="startLine">28</property>
  <property name="stepIndex">1</property>
</record>
<record>
  <date>2021-01-22T15:48:51</date>
  <millis>1611290931794</millis>
  <sequence>28</sequence>
  <level>END</level>
  <class>com.kms.katalon.core.logging.XmlKeywordLogger</class>
  <method>endKeyword</method>
  <thread>1</thread>
  <message>End action : println(\&amp;quot;ABhishek connected with Jenkins and first push5\&amp;quot;)</message>
  <nestedLevel>2</nestedLevel>
</record>
<record>
  <date>2021-01-22T15:48:51</date>
  <millis>1611290931797</millis>
  <sequence>29</sequence>
  <level>END</level>
  <class>com.kms.katalon.core.logging.XmlKeywordLogger</class>
  <method>endKeyword</method>
  <thread>1</thread>
  <message>End action : else</message>
  <nestedLevel>1</nestedLevel>
</record>
<record>
  <date>2021-01-22T15:48:51</date>
  <millis>1611290931797</millis>
  <sequence>30</sequence>
  <level>PASSED</level>
  <class>com.kms.katalon.core.logging.XmlKeywordLogger</class>
  <method>logMessage</method>
  <thread>1</thread>
  <message>Test Cases/API_TC01</message>
  <nestedLevel>1</nestedLevel>
</record>
<record>
  <date>2021-01-22T15:48:51</date>
  <millis>1611290931798</millis>
  <sequence>31</sequence>
  <level>END</level>
  <class>com.kms.katalon.core.logging.XmlKeywordLogger</class>
  <method>endTest</method>
  <thread>1</thread>
  <message>End Test Case : Test Cases/API_TC01</message>
  <nestedLevel>0</nestedLevel>
</record>
<record>
  <date>2021-01-22T15:48:51</date>
  <millis>1611290931840</millis>
  <sequence>32</sequence>
  <level>START</level>
  <class>com.kms.katalon.core.logging.XmlKeywordLogger</class>
  <method>startTest</method>
  <thread>1</thread>
  <message>Start Test Case : Test Cases/API_TC01</message>
  <nestedLevel>1</nestedLevel>
  <property name="name">Test Cases/API_TC01</property>
  <property name="description"></property>
  <property name="id">Test Cases/API_TC01</property>
  <property name="source">C:\\Users\\abhi1\\git\\api_automation.v1\\Test Cases\\API_TC01.tc</property>
  <property name="tag"></property>
  <property name="isOptional">false</property>
</record>
<record>
  <date>2021-01-22T15:48:51</date>
  <millis>1611290931848</millis>
  <sequence>34</sequence>
  <level>INFO</level>
  <class>com.kms.katalon.core.logging.XmlKeywordLogger</class>
  <method>logMessage</method>
  <thread>1</thread>
  <message>countryCode = US</message>
  <nestedLevel>1</nestedLevel>
</record>
<record>
  <date>2021-01-22T15:48:51</date>
  <millis>1611290931850</millis>
  <sequence>35</sequence>
  <level>INFO</level>
  <class>com.kms.katalon.core.logging.XmlKeywordLogger</class>
  <method>logMessage</method>
  <thread>1</thread>
  <message>RespCurr = Dollars</message>
  <nestedLevel>1</nestedLevel>
</record>
<record>
  <date>2021-01-22T15:48:51</date>
  <millis>1611290931850</millis>
  <sequence>36</sequence>
  <level>INFO</level>
  <class>com.kms.katalon.core.logging.XmlKeywordLogger</class>
  <method>logMessage</method>
  <thread>1</thread>
  <message>RespCD = USD</message>
  <nestedLevel>1</nestedLevel>
</record>
<record>
  <date>2021-01-22T15:48:51</date>
  <millis>1611290931852</millis>
  <sequence>37</sequence>
  <level>START</level>
  <class>com.kms.katalon.core.logging.XmlKeywordLogger</class>
  <method>startKeyword</method>
  <thread>1</thread>
  <message>Start action : Response2 = sendRequest(findTestObject(\&amp;quot;SOAP/Currency_var\&amp;quot;, [\&amp;quot;countryCD\&amp;quot;:countryCode]))</message>
  <nestedLevel>1</nestedLevel>
  <property name="startLine">16</property>
  <property name="stepIndex">1</property>
</record>
<record>
  <date>2021-01-22T15:48:52</date>
  <millis>1611290932934</millis>
  <sequence>40</sequence>
  <level>INFO</level>
  <class>com.kms.katalon.core.logging.XmlKeywordLogger</class>
  <method>logMessage</method>
  <thread>1</thread>
  <message>HAR: C:\\Users\\abhi1\\git\\api_automation.v1\\Reports\\20210122_154846\\API Test Suite\\20210122_154846\\requests\\main\\1.har</message>
  <nestedLevel>1</nestedLevel>
  <property name="harId">b889d3e9-1ef4-40a3-aae6-ef70d9014dda</property>
</record>
<record>
  <date>2021-01-22T15:48:52</date>
  <millis>1611290932939</millis>
  <sequence>41</sequence>
  <level>PASSED</level>
  <class>com.kms.katalon.core.logging.XmlKeywordLogger</class>
  <method>logMessage</method>
  <thread>1</thread>
  <message>Send request successfully</message>
  <nestedLevel>1</nestedLevel>
</record>
<record>
  <date>2021-01-22T15:48:52</date>
  <millis>1611290932940</millis>
  <sequence>42</sequence>
  <level>END</level>
  <class>com.kms.katalon.core.logging.XmlKeywordLogger</class>
  <method>endKeyword</method>
  <thread>1</thread>
  <message>End action : Response2 = sendRequest(findTestObject(\&amp;quot;SOAP/Currency_var\&amp;quot;, [\&amp;quot;countryCD\&amp;quot;:countryCode]))</message>
  <nestedLevel>1</nestedLevel>
</record>
<record>
  <date>2021-01-22T15:48:52</date>
  <millis>1611290932941</millis>
  <sequence>43</sequence>
  <level>START</level>
  <class>com.kms.katalon.core.logging.XmlKeywordLogger</class>
  <method>startKeyword</method>
  <thread>1</thread>
  <message>Start action : verifyElementText(Response2, \&amp;quot;CountryCurrencyResponse.CountryCurrencyResult.sName\&amp;quot;, RespCurr)</message>
  <nestedLevel>1</nestedLevel>
  <property name="startLine">18</property>
  <property name="stepIndex">2</property>
</record>
<record>
  <date>2021-01-22T15:48:52</date>
  <millis>1611290932977</millis>
  <sequence>45</sequence>
  <level>PASSED</level>
  <class>com.kms.katalon.core.logging.XmlKeywordLogger</class>
  <method>logMessage</method>
  <thread>1</thread>
  <message>Verify element text successfully</message>
  <nestedLevel>1</nestedLevel>
</record>
<record>
  <date>2021-01-22T15:48:52</date>
  <millis>1611290932977</millis>
  <sequence>46</sequence>
  <level>END</level>
  <class>com.kms.katalon.core.logging.XmlKeywordLogger</class>
  <method>endKeyword</method>
  <thread>1</thread>
  <message>End action : verifyElementText(Response2, \&amp;quot;CountryCurrencyResponse.CountryCurrencyResult.sName\&amp;quot;, RespCurr)</message>
  <nestedLevel>1</nestedLevel>
</record>
<record>
  <date>2021-01-22T15:48:52</date>
  <millis>1611290932977</millis>
  <sequence>47</sequence>
  <level>START</level>
  <class>com.kms.katalon.core.logging.XmlKeywordLogger</class>
  <method>startKeyword</method>
  <thread>1</thread>
  <message>Start action : verifyElementText(Response2, \&amp;quot;CountryCurrencyResponse.CountryCurrencyResult.sISOCode\&amp;quot;, RespCD)</message>
  <nestedLevel>1</nestedLevel>
  <property name="startLine">20</property>
  <property name="stepIndex">3</property>
</record>
<record>
  <date>2021-01-22T15:48:53</date>
  <millis>1611290933002</millis>
  <sequence>49</sequence>
  <level>PASSED</level>
  <class>com.kms.katalon.core.logging.XmlKeywordLogger</class>
  <method>logMessage</method>
  <thread>1</thread>
  <message>Verify element text successfully</message>
  <nestedLevel>1</nestedLevel>
</record>
<record>
  <date>2021-01-22T15:48:53</date>
  <millis>1611290933002</millis>
  <sequence>50</sequence>
  <level>END</level>
  <class>com.kms.katalon.core.logging.XmlKeywordLogger</class>
  <method>endKeyword</method>
  <thread>1</thread>
  <message>End action : verifyElementText(Response2, \&amp;quot;CountryCurrencyResponse.CountryCurrencyResult.sISOCode\&amp;quot;, RespCD)</message>
  <nestedLevel>1</nestedLevel>
</record>
<record>
  <date>2021-01-22T15:48:53</date>
  <millis>1611290933003</millis>
  <sequence>51</sequence>
  <level>START</level>
  <class>com.kms.katalon.core.logging.XmlKeywordLogger</class>
  <method>startKeyword</method>
  <thread>1</thread>
  <message>Start action : if (countryCode == \&amp;quot;US\&amp;quot;)</message>
  <nestedLevel>1</nestedLevel>
  <property name="startLine">22</property>
  <property name="stepIndex">4</property>
</record>
<record>
  <date>2021-01-22T15:48:53</date>
  <millis>1611290933003</millis>
  <sequence>52</sequence>
  <level>START</level>
  <class>com.kms.katalon.core.logging.XmlKeywordLogger</class>
  <method>startKeyword</method>
  <thread>1</thread>
  <message>Start action : println(\&amp;quot;ABhishek connected with Jenkins and first push4\&amp;quot;)</message>
  <nestedLevel>2</nestedLevel>
  <property name="startLine">23</property>
  <property name="stepIndex">1</property>
</record>
<record>
  <date>2021-01-22T15:48:53</date>
  <millis>1611290933004</millis>
  <sequence>53</sequence>
  <level>END</level>
  <class>com.kms.katalon.core.logging.XmlKeywordLogger</class>
  <method>endKeyword</method>
  <thread>1</thread>
  <message>End action : println(\&amp;quot;ABhishek connected with Jenkins and first push4\&amp;quot;)</message>
  <nestedLevel>2</nestedLevel>
</record>
<record>
  <date>2021-01-22T15:48:53</date>
  <millis>1611290933004</millis>
  <sequence>54</sequence>
  <level>START</level>
  <class>com.kms.katalon.core.logging.XmlKeywordLogger</class>
  <method>startKeyword</method>
  <thread>1</thread>
  <message>Start action : sendRequest(findTestObject(\&amp;quot;REST/POST\&amp;quot;))</message>
  <nestedLevel>2</nestedLevel>
  <property name="startLine">25</property>
  <property name="stepIndex">2</property>
</record>
<record>
  <date>2021-01-22T15:48:54</date>
  <millis>1611290934064</millis>
  <sequence>57</sequence>
  <level>INFO</level>
  <class>com.kms.katalon.core.logging.XmlKeywordLogger</class>
  <method>logMessage</method>
  <thread>1</thread>
  <message>HAR: C:\\Users\\abhi1\\git\\api_automation.v1\\Reports\\20210122_154846\\API Test Suite\\20210122_154846\\requests\\main\\2.har</message>
  <nestedLevel>1</nestedLevel>
  <property name="harId">79b2679b-4304-4e5b-92d6-a99a3f37b1a0</property>
</record>
<record>
  <date>2021-01-22T15:48:54</date>
  <millis>1611290934067</millis>
  <sequence>58</sequence>
  <level>PASSED</level>
  <class>com.kms.katalon.core.logging.XmlKeywordLogger</class>
  <method>logMessage</method>
  <thread>1</thread>
  <message>Send request successfully</message>
  <nestedLevel>1</nestedLevel>
</record>
<record>
  <date>2021-01-22T15:48:54</date>
  <millis>1611290934068</millis>
  <sequence>59</sequence>
  <level>END</level>
  <class>com.kms.katalon.core.logging.XmlKeywordLogger</class>
  <method>endKeyword</method>
  <thread>1</thread>
  <message>End action : sendRequest(findTestObject(\&amp;quot;REST/POST\&amp;quot;))</message>
  <nestedLevel>2</nestedLevel>
</record>
<record>
  <date>2021-01-22T15:48:54</date>
  <millis>1611290934068</millis>
  <sequence>60</sequence>
  <level>END</level>
  <class>com.kms.katalon.core.logging.XmlKeywordLogger</class>
  <method>endKeyword</method>
  <thread>1</thread>
  <message>End action : if (countryCode == \&amp;quot;US\&amp;quot;)</message>
  <nestedLevel>1</nestedLevel>
</record>
<record>
  <date>2021-01-22T15:48:54</date>
  <millis>1611290934068</millis>
  <sequence>61</sequence>
  <level>PASSED</level>
  <class>com.kms.katalon.core.logging.XmlKeywordLogger</class>
  <method>logMessage</method>
  <thread>1</thread>
  <message>Test Cases/API_TC01</message>
  <nestedLevel>1</nestedLevel>
</record>
<record>
  <date>2021-01-22T15:48:54</date>
  <millis>1611290934069</millis>
  <sequence>62</sequence>
  <level>END</level>
  <class>com.kms.katalon.core.logging.XmlKeywordLogger</class>
  <method>endTest</method>
  <thread>1</thread>
  <message>End Test Case : Test Cases/API_TC01</message>
  <nestedLevel>0</nestedLevel>
</record>
<record>
  <date>2021-01-22T15:48:54</date>
  <millis>1611290934102</millis>
  <sequence>63</sequence>
  <level>START</level>
  <class>com.kms.katalon.core.logging.XmlKeywordLogger</class>
  <method>startTest</method>
  <thread>1</thread>
  <message>Start Test Case : Test Cases/API_TC01</message>
  <nestedLevel>1</nestedLevel>
  <property name="name">Test Cases/API_TC01</property>
  <property name="description"></property>
  <property name="id">Test Cases/API_TC01</property>
  <property name="source">C:\\Users\\abhi1\\git\\api_automation.v1\\Test Cases\\API_TC01.tc</property>
  <property name="tag"></property>
  <property name="isOptional">false</property>
</record>
<record>
  <date>2021-01-22T15:48:54</date>
  <millis>1611290934108</millis>
  <sequence>65</sequence>
  <level>INFO</level>
  <class>com.kms.katalon.core.logging.XmlKeywordLogger</class>
  <method>logMessage</method>
  <thread>1</thread>
  <message>countryCode = VN</message>
  <nestedLevel>1</nestedLevel>
</record>
<record>
  <date>2021-01-22T15:48:54</date>
  <millis>1611290934108</millis>
  <sequence>66</sequence>
  <level>INFO</level>
  <class>com.kms.katalon.core.logging.XmlKeywordLogger</class>
  <method>logMessage</method>
  <thread>1</thread>
  <message>RespCurr = Dong</message>
  <nestedLevel>1</nestedLevel>
</record>
<record>
  <date>2021-01-22T15:48:54</date>
  <millis>1611290934108</millis>
  <sequence>67</sequence>
  <level>INFO</level>
  <class>com.kms.katalon.core.logging.XmlKeywordLogger</class>
  <method>logMessage</method>
  <thread>1</thread>
  <message>RespCD = VND</message>
  <nestedLevel>1</nestedLevel>
</record>
<record>
  <date>2021-01-22T15:48:54</date>
  <millis>1611290934110</millis>
  <sequence>68</sequence>
  <level>START</level>
  <class>com.kms.katalon.core.logging.XmlKeywordLogger</class>
  <method>startKeyword</method>
  <thread>1</thread>
  <message>Start action : Response2 = sendRequest(findTestObject(\&amp;quot;SOAP/Currency_var\&amp;quot;, [\&amp;quot;countryCD\&amp;quot;:countryCode]))</message>
  <nestedLevel>1</nestedLevel>
  <property name="startLine">16</property>
  <property name="stepIndex">1</property>
</record>
<record>
  <date>2021-01-22T15:48:55</date>
  <millis>1611290935084</millis>
  <sequence>71</sequence>
  <level>INFO</level>
  <class>com.kms.katalon.core.logging.XmlKeywordLogger</class>
  <method>logMessage</method>
  <thread>1</thread>
  <message>HAR: C:\\Users\\abhi1\\git\\api_automation.v1\\Reports\\20210122_154846\\API Test Suite\\20210122_154846\\requests\\main\\3.har</message>
  <nestedLevel>1</nestedLevel>
  <property name="harId">4ac5e833-2b91-4f56-a3f4-21ee7a16e6c1</property>
</record>
<record>
  <date>2021-01-22T15:48:55</date>
  <millis>1611290935088</millis>
  <sequence>72</sequence>
  <level>PASSED</level>
  <class>com.kms.katalon.core.logging.XmlKeywordLogger</class>
  <method>logMessage</method>
  <thread>1</thread>
  <message>Send request successfully</message>
  <nestedLevel>1</nestedLevel>
</record>
<record>
  <date>2021-01-22T15:48:55</date>
  <millis>1611290935089</millis>
  <sequence>73</sequence>
  <level>END</level>
  <class>com.kms.katalon.core.logging.XmlKeywordLogger</class>
  <method>endKeyword</method>
  <thread>1</thread>
  <message>End action : Response2 = sendRequest(findTestObject(\&amp;quot;SOAP/Currency_var\&amp;quot;, [\&amp;quot;countryCD\&amp;quot;:countryCode]))</message>
  <nestedLevel>1</nestedLevel>
</record>
<record>
  <date>2021-01-22T15:48:55</date>
  <millis>1611290935089</millis>
  <sequence>74</sequence>
  <level>START</level>
  <class>com.kms.katalon.core.logging.XmlKeywordLogger</class>
  <method>startKeyword</method>
  <thread>1</thread>
  <message>Start action : verifyElementText(Response2, \&amp;quot;CountryCurrencyResponse.CountryCurrencyResult.sName\&amp;quot;, RespCurr)</message>
  <nestedLevel>1</nestedLevel>
  <property name="startLine">18</property>
  <property name="stepIndex">2</property>
</record>
<record>
  <date>2021-01-22T15:48:55</date>
  <millis>1611290935142</millis>
  <sequence>76</sequence>
  <level>PASSED</level>
  <class>com.kms.katalon.core.logging.XmlKeywordLogger</class>
  <method>logMessage</method>
  <thread>1</thread>
  <message>Verify element text successfully</message>
  <nestedLevel>1</nestedLevel>
</record>
<record>
  <date>2021-01-22T15:48:55</date>
  <millis>1611290935143</millis>
  <sequence>77</sequence>
  <level>END</level>
  <class>com.kms.katalon.core.logging.XmlKeywordLogger</class>
  <method>endKeyword</method>
  <thread>1</thread>
  <message>End action : verifyElementText(Response2, \&amp;quot;CountryCurrencyResponse.CountryCurrencyResult.sName\&amp;quot;, RespCurr)</message>
  <nestedLevel>1</nestedLevel>
</record>
<record>
  <date>2021-01-22T15:48:55</date>
  <millis>1611290935143</millis>
  <sequence>78</sequence>
  <level>START</level>
  <class>com.kms.katalon.core.logging.XmlKeywordLogger</class>
  <method>startKeyword</method>
  <thread>1</thread>
  <message>Start action : verifyElementText(Response2, \&amp;quot;CountryCurrencyResponse.CountryCurrencyResult.sISOCode\&amp;quot;, RespCD)</message>
  <nestedLevel>1</nestedLevel>
  <property name="startLine">20</property>
  <property name="stepIndex">3</property>
</record>
<record>
  <date>2021-01-22T15:48:55</date>
  <millis>1611290935169</millis>
  <sequence>80</sequence>
  <level>PASSED</level>
  <class>com.kms.katalon.core.logging.XmlKeywordLogger</class>
  <method>logMessage</method>
  <thread>1</thread>
  <message>Verify element text successfully</message>
  <nestedLevel>1</nestedLevel>
</record>
<record>
  <date>2021-01-22T15:48:55</date>
  <millis>1611290935169</millis>
  <sequence>81</sequence>
  <level>END</level>
  <class>com.kms.katalon.core.logging.XmlKeywordLogger</class>
  <method>endKeyword</method>
  <thread>1</thread>
  <message>End action : verifyElementText(Response2, \&amp;quot;CountryCurrencyResponse.CountryCurrencyResult.sISOCode\&amp;quot;, RespCD)</message>
  <nestedLevel>1</nestedLevel>
</record>
<record>
  <date>2021-01-22T15:48:55</date>
  <millis>1611290935169</millis>
  <sequence>82</sequence>
  <level>START</level>
  <class>com.kms.katalon.core.logging.XmlKeywordLogger</class>
  <method>startKeyword</method>
  <thread>1</thread>
  <message>Start action : if (countryCode == \&amp;quot;US\&amp;quot;)</message>
  <nestedLevel>1</nestedLevel>
  <property name="startLine">22</property>
  <property name="stepIndex">4</property>
</record>
<record>
  <date>2021-01-22T15:48:55</date>
  <millis>1611290935170</millis>
  <sequence>83</sequence>
  <level>END</level>
  <class>com.kms.katalon.core.logging.XmlKeywordLogger</class>
  <method>endKeyword</method>
  <thread>1</thread>
  <message>End action : if (countryCode == \&amp;quot;US\&amp;quot;)</message>
  <nestedLevel>1</nestedLevel>
</record>
<record>
  <date>2021-01-22T15:48:55</date>
  <millis>1611290935170</millis>
  <sequence>84</sequence>
  <level>START</level>
  <class>com.kms.katalon.core.logging.XmlKeywordLogger</class>
  <method>startKeyword</method>
  <thread>1</thread>
  <message>Start action : else</message>
  <nestedLevel>1</nestedLevel>
  <property name="startLine">28</property>
  <property name="stepIndex">5</property>
</record>
<record>
  <date>2021-01-22T15:48:55</date>
  <millis>1611290935170</millis>
  <sequence>85</sequence>
  <level>START</level>
  <class>com.kms.katalon.core.logging.XmlKeywordLogger</class>
  <method>startKeyword</method>
  <thread>1</thread>
  <message>Start action : println(\&amp;quot;ABhishek connected with Jenkins and first push5\&amp;quot;)</message>
  <nestedLevel>2</nestedLevel>
  <property name="startLine">28</property>
  <property name="stepIndex">1</property>
</record>
<record>
  <date>2021-01-22T15:48:55</date>
  <millis>1611290935171</millis>
  <sequence>86</sequence>
  <level>END</level>
  <class>com.kms.katalon.core.logging.XmlKeywordLogger</class>
  <method>endKeyword</method>
  <thread>1</thread>
  <message>End action : println(\&amp;quot;ABhishek connected with Jenkins and first push5\&amp;quot;)</message>
  <nestedLevel>2</nestedLevel>
</record>
<record>
  <date>2021-01-22T15:48:55</date>
  <millis>1611290935171</millis>
  <sequence>87</sequence>
  <level>END</level>
  <class>com.kms.katalon.core.logging.XmlKeywordLogger</class>
  <method>endKeyword</method>
  <thread>1</thread>
  <message>End action : else</message>
  <nestedLevel>1</nestedLevel>
</record>
<record>
  <date>2021-01-22T15:48:55</date>
  <millis>1611290935171</millis>
  <sequence>88</sequence>
  <level>PASSED</level>
  <class>com.kms.katalon.core.logging.XmlKeywordLogger</class>
  <method>logMessage</method>
  <thread>1</thread>
  <message>Test Cases/API_TC01</message>
  <nestedLevel>1</nestedLevel>
</record>
<record>
  <date>2021-01-22T15:48:55</date>
  <millis>1611290935171</millis>
  <sequence>89</sequence>
  <level>END</level>
  <class>com.kms.katalon.core.logging.XmlKeywordLogger</class>
  <method>endTest</method>
  <thread>1</thread>
  <message>End Test Case : Test Cases/API_TC01</message>
  <nestedLevel>0</nestedLevel>
</record>
<record>
  <date>2021-01-22T15:48:55</date>
  <millis>1611290935199</millis>
  <sequence>90</sequence>
  <level>START</level>
  <class>com.kms.katalon.core.logging.XmlKeywordLogger</class>
  <method>startTest</method>
  <thread>1</thread>
  <message>Start Test Case : Test Cases/API_TC01</message>
  <nestedLevel>1</nestedLevel>
  <property name="name">Test Cases/API_TC01</property>
  <property name="description"></property>
  <property name="id">Test Cases/API_TC01</property>
  <property name="source">C:\\Users\\abhi1\\git\\api_automation.v1\\Test Cases\\API_TC01.tc</property>
  <property name="tag"></property>
  <property name="isOptional">false</property>
</record>
<record>
  <date>2021-01-22T15:48:55</date>
  <millis>1611290935203</millis>
  <sequence>92</sequence>
  <level>INFO</level>
  <class>com.kms.katalon.core.logging.XmlKeywordLogger</class>
  <method>logMessage</method>
  <thread>1</thread>
  <message>countryCode = BY</message>
  <nestedLevel>1</nestedLevel>
</record>
<record>
  <date>2021-01-22T15:48:55</date>
  <millis>1611290935203</millis>
  <sequence>93</sequence>
  <level>INFO</level>
  <class>com.kms.katalon.core.logging.XmlKeywordLogger</class>
  <method>logMessage</method>
  <thread>1</thread>
  <message>RespCurr = Rubles</message>
  <nestedLevel>1</nestedLevel>
</record>
<record>
  <date>2021-01-22T15:48:55</date>
  <millis>1611290935203</millis>
  <sequence>94</sequence>
  <level>INFO</level>
  <class>com.kms.katalon.core.logging.XmlKeywordLogger</class>
  <method>logMessage</method>
  <thread>1</thread>
  <message>RespCD = BYR</message>
  <nestedLevel>1</nestedLevel>
</record>
<record>
  <date>2021-01-22T15:48:55</date>
  <millis>1611290935205</millis>
  <sequence>95</sequence>
  <level>START</level>
  <class>com.kms.katalon.core.logging.XmlKeywordLogger</class>
  <method>startKeyword</method>
  <thread>1</thread>
  <message>Start action : Response2 = sendRequest(findTestObject(\&amp;quot;SOAP/Currency_var\&amp;quot;, [\&amp;quot;countryCD\&amp;quot;:countryCode]))</message>
  <nestedLevel>1</nestedLevel>
  <property name="startLine">16</property>
  <property name="stepIndex">1</property>
</record>
<record>
  <date>2021-01-22T15:48:56</date>
  <millis>1611290936320</millis>
  <sequence>98</sequence>
  <level>INFO</level>
  <class>com.kms.katalon.core.logging.XmlKeywordLogger</class>
  <method>logMessage</method>
  <thread>1</thread>
  <message>HAR: C:\\Users\\abhi1\\git\\api_automation.v1\\Reports\\20210122_154846\\API Test Suite\\20210122_154846\\requests\\main\\4.har</message>
  <nestedLevel>1</nestedLevel>
  <property name="harId">884108f5-b84f-4ce2-b8f4-52a8929f9add</property>
</record>
<record>
  <date>2021-01-22T15:48:56</date>
  <millis>1611290936325</millis>
  <sequence>99</sequence>
  <level>PASSED</level>
  <class>com.kms.katalon.core.logging.XmlKeywordLogger</class>
  <method>logMessage</method>
  <thread>1</thread>
  <message>Send request successfully</message>
  <nestedLevel>1</nestedLevel>
</record>
<record>
  <date>2021-01-22T15:48:56</date>
  <millis>1611290936327</millis>
  <sequence>100</sequence>
  <level>END</level>
  <class>com.kms.katalon.core.logging.XmlKeywordLogger</class>
  <method>endKeyword</method>
  <thread>1</thread>
  <message>End action : Response2 = sendRequest(findTestObject(\&amp;quot;SOAP/Currency_var\&amp;quot;, [\&amp;quot;countryCD\&amp;quot;:countryCode]))</message>
  <nestedLevel>1</nestedLevel>
</record>
<record>
  <date>2021-01-22T15:48:56</date>
  <millis>1611290936327</millis>
  <sequence>101</sequence>
  <level>START</level>
  <class>com.kms.katalon.core.logging.XmlKeywordLogger</class>
  <method>startKeyword</method>
  <thread>1</thread>
  <message>Start action : verifyElementText(Response2, \&amp;quot;CountryCurrencyResponse.CountryCurrencyResult.sName\&amp;quot;, RespCurr)</message>
  <nestedLevel>1</nestedLevel>
  <property name="startLine">18</property>
  <property name="stepIndex">2</property>
</record>
<record>
  <date>2021-01-22T15:48:56</date>
  <millis>1611290936365</millis>
  <sequence>103</sequence>
  <level>PASSED</level>
  <class>com.kms.katalon.core.logging.XmlKeywordLogger</class>
  <method>logMessage</method>
  <thread>1</thread>
  <message>Verify element text successfully</message>
  <nestedLevel>1</nestedLevel>
</record>
<record>
  <date>2021-01-22T15:48:56</date>
  <millis>1611290936365</millis>
  <sequence>104</sequence>
  <level>END</level>
  <class>com.kms.katalon.core.logging.XmlKeywordLogger</class>
  <method>endKeyword</method>
  <thread>1</thread>
  <message>End action : verifyElementText(Response2, \&amp;quot;CountryCurrencyResponse.CountryCurrencyResult.sName\&amp;quot;, RespCurr)</message>
  <nestedLevel>1</nestedLevel>
</record>
<record>
  <date>2021-01-22T15:48:56</date>
  <millis>1611290936365</millis>
  <sequence>105</sequence>
  <level>START</level>
  <class>com.kms.katalon.core.logging.XmlKeywordLogger</class>
  <method>startKeyword</method>
  <thread>1</thread>
  <message>Start action : verifyElementText(Response2, \&amp;quot;CountryCurrencyResponse.CountryCurrencyResult.sISOCode\&amp;quot;, RespCD)</message>
  <nestedLevel>1</nestedLevel>
  <property name="startLine">20</property>
  <property name="stepIndex">3</property>
</record>
<record>
  <date>2021-01-22T15:48:56</date>
  <millis>1611290936392</millis>
  <sequence>107</sequence>
  <level>PASSED</level>
  <class>com.kms.katalon.core.logging.XmlKeywordLogger</class>
  <method>logMessage</method>
  <thread>1</thread>
  <message>Verify element text successfully</message>
  <nestedLevel>1</nestedLevel>
</record>
<record>
  <date>2021-01-22T15:48:56</date>
  <millis>1611290936392</millis>
  <sequence>108</sequence>
  <level>END</level>
  <class>com.kms.katalon.core.logging.XmlKeywordLogger</class>
  <method>endKeyword</method>
  <thread>1</thread>
  <message>End action : verifyElementText(Response2, \&amp;quot;CountryCurrencyResponse.CountryCurrencyResult.sISOCode\&amp;quot;, RespCD)</message>
  <nestedLevel>1</nestedLevel>
</record>
<record>
  <date>2021-01-22T15:48:56</date>
  <millis>1611290936392</millis>
  <sequence>109</sequence>
  <level>START</level>
  <class>com.kms.katalon.core.logging.XmlKeywordLogger</class>
  <method>startKeyword</method>
  <thread>1</thread>
  <message>Start action : if (countryCode == \&amp;quot;US\&amp;quot;)</message>
  <nestedLevel>1</nestedLevel>
  <property name="startLine">22</property>
  <property name="stepIndex">4</property>
</record>
<record>
  <date>2021-01-22T15:48:56</date>
  <millis>1611290936393</millis>
  <sequence>110</sequence>
  <level>END</level>
  <class>com.kms.katalon.core.logging.XmlKeywordLogger</class>
  <method>endKeyword</method>
  <thread>1</thread>
  <message>End action : if (countryCode == \&amp;quot;US\&amp;quot;)</message>
  <nestedLevel>1</nestedLevel>
</record>
<record>
  <date>2021-01-22T15:48:56</date>
  <millis>1611290936393</millis>
  <sequence>111</sequence>
  <level>START</level>
  <class>com.kms.katalon.core.logging.XmlKeywordLogger</class>
  <method>startKeyword</method>
  <thread>1</thread>
  <message>Start action : else</message>
  <nestedLevel>1</nestedLevel>
  <property name="startLine">28</property>
  <property name="stepIndex">5</property>
</record>
<record>
  <date>2021-01-22T15:48:56</date>
  <millis>1611290936393</millis>
  <sequence>112</sequence>
  <level>START</level>
  <class>com.kms.katalon.core.logging.XmlKeywordLogger</class>
  <method>startKeyword</method>
  <thread>1</thread>
  <message>Start action : println(\&amp;quot;ABhishek connected with Jenkins and first push5\&amp;quot;)</message>
  <nestedLevel>2</nestedLevel>
  <property name="startLine">28</property>
  <property name="stepIndex">1</property>
</record>
<record>
  <date>2021-01-22T15:48:56</date>
  <millis>1611290936394</millis>
  <sequence>113</sequence>
  <level>END</level>
  <class>com.kms.katalon.core.logging.XmlKeywordLogger</class>
  <method>endKeyword</method>
  <thread>1</thread>
  <message>End action : println(\&amp;quot;ABhishek connected with Jenkins and first push5\&amp;quot;)</message>
  <nestedLevel>2</nestedLevel>
</record>
<record>
  <date>2021-01-22T15:48:56</date>
  <millis>1611290936394</millis>
  <sequence>114</sequence>
  <level>END</level>
  <class>com.kms.katalon.core.logging.XmlKeywordLogger</class>
  <method>endKeyword</method>
  <thread>1</thread>
  <message>End action : else</message>
  <nestedLevel>1</nestedLevel>
</record>
<record>
  <date>2021-01-22T15:48:56</date>
  <millis>1611290936394</millis>
  <sequence>115</sequence>
  <level>PASSED</level>
  <class>com.kms.katalon.core.logging.XmlKeywordLogger</class>
  <method>logMessage</method>
  <thread>1</thread>
  <message>Test Cases/API_TC01</message>
  <nestedLevel>1</nestedLevel>
</record>
<record>
  <date>2021-01-22T15:48:56</date>
  <millis>1611290936395</millis>
  <sequence>116</sequence>
  <level>END</level>
  <class>com.kms.katalon.core.logging.XmlKeywordLogger</class>
  <method>endTest</method>
  <thread>1</thread>
  <message>End Test Case : Test Cases/API_TC01</message>
  <nestedLevel>0</nestedLevel>
</record>
<record>
  <date>2021-01-22T15:48:56</date>
  <millis>1611290936445</millis>
  <sequence>117</sequence>
  <level>END</level>
  <class>com.kms.katalon.core.logging.XmlKeywordLogger</class>
  <method>endSuite</method>
  <thread>1</thread>
  <message>End Test Suite : Test Suites/API Test Suite</message>
  <nestedLevel>0</nestedLevel>
</record>
</log>
